{
    "KPlugin": {
        "Description": "Provides location updates for Night Color",
        "Description[ar]": "يقدم تحديثات للموقع للون الليلي",
        "Description[az]": "Gecə rəngi rejimi üçün məkan yenilənmələrini təqdim edir",
        "Description[be]": "Абнаўленне месцазнаходжання для начнога колеру",
        "Description[bg]": "Осигурява актуализиране на местоположението за Нощни цветове",
        "Description[ca@valencia]": "Proporciona actualitzacions d'ubicació per al color de nit",
        "Description[ca]": "Proporciona actualitzacions d'ubicació per al color de nit",
        "Description[cs]": "Poskytuje aktualizace polohy pro noční barvu",
        "Description[de]": "Stellt Standortaktualisierungen für Nachtfarben zur Verfügung",
        "Description[en_GB]": "Provides location updates for Night Colour",
        "Description[eo]": "Provizas lokajn ĝisdatigojn por Nokta Koloro",
        "Description[es]": "Proporciona actualizaciones de la ubicación para el color nocturno",
        "Description[eu]": "Gaueko kolorerako kokapen eguneratzeak hornitzen ditu",
        "Description[fi]": "Tarjoaa yövärin sijaintipäivitykset",
        "Description[fr]": "Fournit des mises à jour d'emplacements pour la couleur de nuit",
        "Description[gl]": "Fornece actualizacións de localizacións para a cor nocturna.",
        "Description[he]": "מספק עדכוני מקום לצבע לילה",
        "Description[hi]": "रात्रि रंग के लिए स्थान अपडेट प्रदान करता है",
        "Description[ia]": "Provide actualisationes de location per Color de Nocte",
        "Description[is]": "Sér um uppfærslur á staðsetningu fyrir næturliti",
        "Description[it]": "Fornisce aggiornamenti sulla posizione per Colore notturno",
        "Description[ja]": "Night Color に位置情報の更新を提供します",
        "Description[ka]": "მდებარეობის განახლებები ღამის ფერებისთვის",
        "Description[ko]": "야간 색상 위치 업데이트 제공",
        "Description[lt]": "Teikia naktinės spalvos moduliui atnaujinimus apie vietą",
        "Description[nl]": "Biedt het bijwerken van de locatie voor nachtkleur",
        "Description[nn]": "Gjev oppdatert geografisk posisjon for kveldsfargar",
        "Description[pa]": "ਰਾਤ ਦੇ ਰੰਗ ਲਈ ਟਿਕਾਣਾ ਅੱਪਡੇਟ ਦਿੰਦਾ ਹੈ",
        "Description[pl]": "Dostarcza uaktualnień położenia dla barw nocnych",
        "Description[pt]": "Oferece as actualizações da localização para a Cor Nocturna",
        "Description[pt_BR]": "Fornece atualizações de localização para a cor noturna",
        "Description[ru]": "Определение местоположения для ночной цветовой схемы",
        "Description[sa]": "रात्रौ वर्णस्य कृते स्थानस्य अद्यतनं प्रदाति",
        "Description[sk]": "Poskytuje aktualizácie polohy pre nočnú farbu",
        "Description[sl]": "Zagotavlja posodobitve lokacije za nočno barvo",
        "Description[sv]": "Tillhandahåller platsuppdateringar för nattfärg",
        "Description[ta]": "இரவு நிறமாற்றத்திற்காக இருப்பிடத்தை கண்டறியும்",
        "Description[tr]": "Gece Rengi için konum güncellemeleri sağlar",
        "Description[uk]": "Надає оновлення даних щодо місця перебування для «Нічних кольорів»",
        "Description[vi]": "Cung cấp cập nhật địa điểm cho \"Màu buổi tối\"",
        "Description[x-test]": "xxProvides location updates for Night Colorxx",
        "Description[zh_CN]": "提供夜间颜色的位置更新",
        "Description[zh_TW]": "提供地點更新給夜色模式",
        "Name": "Automatic Location for Night Color",
        "Name[ar]": "موقع آلي للون الليلي",
        "Name[az]": "Gecə rəngi rejimi üçün avtomatik məkan təyini",
        "Name[be]": "Аўтаматычнае вызначэнне месцазнаходжання для начнога колеру",
        "Name[bg]": "Автоматично определяне на местоположение за Нощни цветове",
        "Name[ca@valencia]": "Ubicació automàtica del color de nit",
        "Name[ca]": "Ubicació automàtica del color de nit",
        "Name[cs]": "Automatické zjišťování polohy pro noční barvy",
        "Name[de]": "Automatischer Standort für Nachtfarben",
        "Name[en_GB]": "Automatic Location for Night Colour",
        "Name[eo]": "Aŭtomata Loko por Noktokoloro",
        "Name[es]": "Ubicación automática para el color nocturno",
        "Name[eu]": "Gaueko kolorerako kokapen automatikoa",
        "Name[fi]": "Automaattinen sijainti yövärille",
        "Name[fr]": "Emplacement automatique pour la couleur de nuit",
        "Name[gl]": "Localización automática da cor nocturna",
        "Name[he]": "מקום אוטומטי לצבע לילה",
        "Name[hi]": "रात्रि के रंग के लिए स्वचालित स्थान",
        "Name[ia]": "Location automatic per Color de Nocte",
        "Name[is]": "Sjálfvirk staðsetning fyrir næturliti",
        "Name[it]": "Posizione automatica per Colore notturno",
        "Name[ja]": "Night Color 位置情報自動検知",
        "Name[ka]": "ავტომატური მდებარეობა ღამის ფერისთვის",
        "Name[ko]": "야간 색상 자동 위치 사용",
        "Name[lt]": "Automatinis vietos nustatymas naktinės spalvos moduliui",
        "Name[nl]": "Automatische locatie voor nachtkleur",
        "Name[nn]": "Automatisk stadval for kveldsfargar",
        "Name[pa]": "ਰਾਤ ਦੇ ਰੰਗ ਲਈ ਆਪਣੇ-ਆਪ ਟਿਕਾਣਾ",
        "Name[pl]": "Wykrywanie położenia geograficznego dla barw nocnych",
        "Name[pt]": "Localização Automática para a Cor Nocturna",
        "Name[pt_BR]": "Localização automática para cor noturna",
        "Name[ru]": "Автоматическое определение местоположения для ночной цветовой схемы",
        "Name[sa]": "रात्रौ वर्णस्य कृते स्वचालितं स्थानं",
        "Name[sk]": "Automatická poloha pre nočnú farbu",
        "Name[sl]": "Samodejna lokacija za nočno barvo",
        "Name[sv]": "Automatisk plats för nattfärg",
        "Name[ta]": "இரவு நிறமாற்றத்திற்கான தானியக்க இருப்பிடம்",
        "Name[tr]": "Gece Rengi için Otomatik Konum",
        "Name[uk]": "Автоматичне місце для «Нічних кольорів»",
        "Name[vi]": "Địa điểm tự động cho \"Màu buổi tối\"",
        "Name[x-test]": "xxAutomatic Location for Night Colorxx",
        "Name[zh_CN]": "夜间颜色自动位置",
        "Name[zh_TW]": "夜色模式用的自動地點"
    },
    "X-KDE-Kded-autoload": true
}
