{
    "KPackageStructure": "Plasma/Applet",
    "KPlugin": {
        "Authors": [
            {
                "Email": "sebas@kde.org",
                "Name": "Sebastian Kügler",
                "Name[ar]": "Sebastian Kügler",
                "Name[ast]": "Sebastian Kügler",
                "Name[az]": "Sebastian Kügler",
                "Name[be]": "Sebastian Kügler",
                "Name[bg]": "Sebastian Kügler",
                "Name[ca@valencia]": "Sebastian Kügler",
                "Name[ca]": "Sebastian Kügler",
                "Name[cs]": "Sebastian Kügler",
                "Name[da]": "Sebastian Kügler",
                "Name[de]": "Sebastian Kügler",
                "Name[en_GB]": "Sebastian Kügler",
                "Name[eo]": "Sebastian Kügler",
                "Name[es]": "Sebastian Kügler",
                "Name[et]": "Sebastian Kügler",
                "Name[eu]": "Sebastian Kügler",
                "Name[fi]": "Sebastian Kügler",
                "Name[fr]": "Sebastian Kügler",
                "Name[gl]": "Sebastian Kügler",
                "Name[he]": "סבסטיאן קיגלר",
                "Name[hi]": "सेबस्टियन कुगलर",
                "Name[hu]": "Sebastian Kügler",
                "Name[ia]": "Sebastian Kügler",
                "Name[id]": "Sebastian Kügler",
                "Name[is]": "Sebastian Kügler",
                "Name[it]": "Sebastian Kügler",
                "Name[ja]": "Sebastian Kügler",
                "Name[ka]": "სებასტიან კუგლერი",
                "Name[ko]": "Sebastian Kügler",
                "Name[lt]": "Sebastian Kügler",
                "Name[nl]": "Sebastian Kügler",
                "Name[nn]": "Sebastian Kügler",
                "Name[pa]": "Sebastian Kügler",
                "Name[pl]": "Sebastian Kügler",
                "Name[pt]": "Sebastian Kügler",
                "Name[pt_BR]": "Sebastian Kügler",
                "Name[ro]": "Sebastian Kügler",
                "Name[ru]": "Sebastian Kügler",
                "Name[sa]": "सेबास्टियन् कुग्लर्",
                "Name[sk]": "Sebastian Kügler",
                "Name[sl]": "Sebastian Kügler",
                "Name[sv]": "Sebastian Kügler",
                "Name[ta]": "ஸெபாஸ்டியன் கூக்லர்",
                "Name[tr]": "Sebastian Kügler",
                "Name[uk]": "Sebastian Kügler",
                "Name[vi]": "Sebastian Kügler",
                "Name[x-test]": "xxSebastian Küglerxx",
                "Name[zh_CN]": "Sebastian Kügler",
                "Name[zh_TW]": "Sebastian Kügler"
            },
            {
                "Email": "kde@privat.broulik.de",
                "Name": "Kai Uwe Broulik",
                "Name[ar]": "Kai Uwe Broulik",
                "Name[ast]": "Kai Uwe Broulik",
                "Name[az]": "Kai Uwe Broulik",
                "Name[be]": "Kai Uwe Broulik",
                "Name[bg]": "Kai Uwe Broulik",
                "Name[ca@valencia]": "Kai Uwe Broulik",
                "Name[ca]": "Kai Uwe Broulik",
                "Name[cs]": "Kai Uwe Broulik",
                "Name[da]": "Kai Uwe Broulik",
                "Name[de]": "Kai Uwe Broulik",
                "Name[en_GB]": "Kai Uwe Broulik",
                "Name[eo]": "Kai Uwe Broulik",
                "Name[es]": "Kai Uwe Broulik",
                "Name[et]": "Kai Uwe Broulik",
                "Name[eu]": "Kai Uwe Broulik",
                "Name[fi]": "Kai Uwe Broulik",
                "Name[fr]": "Kai Uwe Broulik",
                "Name[gl]": "Kai Uwe Broulik",
                "Name[he]": "קאי אווה ברוליק",
                "Name[hi]": "काई उवे ब्रोलिक",
                "Name[hu]": "Kai Uwe Broulik",
                "Name[ia]": "Kai Uwe Broulik",
                "Name[id]": "Kai Uwe Broulik",
                "Name[is]": "Kai Uwe Broulik",
                "Name[it]": "Kai Uwe Broulik",
                "Name[ja]": "Kai Uwe Broulik",
                "Name[ka]": "კაი უვე ბროულიკი",
                "Name[ko]": "Kai Uwe Broulik",
                "Name[lt]": "Kai Uwe Broulik",
                "Name[nl]": "Kai Uwe Broulik",
                "Name[nn]": "Kai Uwe Broulik",
                "Name[pl]": "Kai Uwe Broulik",
                "Name[pt]": "Kai Uwe Broulik",
                "Name[pt_BR]": "Kai Uwe Broulik",
                "Name[ro]": "Kai Uwe Broulik",
                "Name[ru]": "Kai Uwe Broulik",
                "Name[sa]": "कै उवे ब्रौलिक्",
                "Name[sk]": "Kai Uwe Broulik",
                "Name[sl]": "Kai Uwe Broulik",
                "Name[sv]": "Kai Uwe Broulik",
                "Name[ta]": "காய் ஊவே புரோலிக்",
                "Name[tr]": "Kai Uwe Broulik",
                "Name[uk]": "Kai Uwe Broulik",
                "Name[vi]": "Kai Uwe Broulik",
                "Name[x-test]": "xxKai Uwe Broulikxx",
                "Name[zh_CN]": "Kai Uwe Broulik",
                "Name[zh_TW]": "Kai Uwe Broulik"
            },
            {
                "Email": "natalie.clarius@kde.org",
                "Name": "Natalie Clarius",
                "Name[bg]": "Natalie Clarius",
                "Name[ca@valencia]": "Natalie Clarius",
                "Name[ca]": "Natalie Clarius",
                "Name[eo]": "Natalie Clarius",
                "Name[es]": "Natalie Clarius",
                "Name[eu]": "Natalie Clarius",
                "Name[fr]": "Natalie Clarius",
                "Name[gl]": "Natalie Clarius",
                "Name[he]": "נטלי קלריוס",
                "Name[ia]": "Natalie Clarius",
                "Name[is]": "Natalie Clarius",
                "Name[it]": "Natalie Clarius",
                "Name[ka]": "ნატალი კლარიუსი",
                "Name[nl]": "Natalie Clarius",
                "Name[pl]": "Natalie Clarius",
                "Name[ru]": "Natalie Clarius",
                "Name[sk]": "Natalie Clarius",
                "Name[sl]": "Natalie Clarius",
                "Name[ta]": "நாட்டலி கிளாரியசு",
                "Name[tr]": "Natalie Clarius",
                "Name[uk]": "Natalie Clarius",
                "Name[x-test]": "xxNatalie Clariusxx",
                "Name[zh_CN]": "Natalie Clarius",
                "Name[zh_TW]": "Natalie Clarius"
            }
        ],
        "BugReportUrl": "https://bugs.kde.org/enter_bug.cgi?product=plasmashell&component=Brightness%20Control",
        "Category": "System Information",
        "Description": "Control brightness and color of your screens and keyboards",
        "Description[bg]": "Управление на яркостта и цвета на екраните и клавиатурите",
        "Description[ca@valencia]": "Control de la brillantor i color de les pantalles i teclats",
        "Description[ca]": "Control de la lluminositat i color de les pantalles i teclats",
        "Description[eo]": "Regi brilecon kaj koloron de viaj ekranoj kaj klavaroj",
        "Description[es]": "Controlar el brillo y el color de las pantallas y los teclados",
        "Description[eu]": "Kontrolatu zure pantailetako eta teklatuetako distira eta kolorea",
        "Description[fr]": "Contrôlez la luminosité et la couleur de vos écrans et de vos claviers",
        "Description[gl]": "Controlar o brillo e a cor das pantallas e teclados.",
        "Description[he]": "שליטה בבהירות ובצבע של המסכים והמקלדות שלך",
        "Description[ia]": "Controla brillantia e color de tu schermos e clavieros",
        "Description[is]": "Stjórna birtustigi og lit á skjáum og lyklaborðum",
        "Description[it]": "Controlla la luminosità e il colore dei tuoi schermi e delle tue tastiere",
        "Description[ka]": "მართეთ თქვენი ეკრანებისა და კლავიატურების სიკაშკაშე და ფერები",
        "Description[nl]": "Helderheid en kleur van uw scherm en toetsenborden besturen",
        "Description[pl]": "Steruje jasnością i barwą ekranów i klawiatur",
        "Description[ru]": "Управления яркостью и цветом экрана и клавиатуры",
        "Description[sk]": "Ovládanie jasu a farby obrazoviek a klávesníc",
        "Description[sl]": "Nadzirajte svetlost in barvo svojih zaslonov in tipkovnic",
        "Description[ta]": "உங்கள் திரைகளின் மற்றும் விசைப்பலகைகளின் பிரகாசத்தை கட்டுப்படுத்த உதவும்",
        "Description[tr]": "Ekranların ve klavyelerin parlaklığını ve rengini ayarlayın",
        "Description[uk]": "Керування яскравістю і кольором на вашому екрані та у підсвічування клавіатури",
        "Description[x-test]": "xxControl brightness and color of your screens and keyboardsxx",
        "Description[zh_CN]": "控制屏幕和键盘的亮度和颜色",
        "Description[zh_TW]": "控制您的螢幕與鍵盤的亮度及顏色",
        "EnabledByDefault": true,
        "FormFactors": [
            "desktop"
        ],
        "Icon": "brightness-high",
        "Id": "org.kde.plasma.brightness",
        "License": "GPL-2.0+",
        "Name": "Brightness and Color",
        "Name[bg]": "Яркост и цветове",
        "Name[ca@valencia]": "Brillantor i color",
        "Name[ca]": "Lluminositat i color",
        "Name[eo]": "Brileco kaj Koloro",
        "Name[es]": "Brillo y color",
        "Name[eu]": "Distira eta kolorea",
        "Name[fr]": "Luminosité et couleur",
        "Name[gl]": "Brillo e cor",
        "Name[he]": "בהירות וצבע",
        "Name[ia]": "Brillantia e Color",
        "Name[is]": "Birtustig og litur",
        "Name[it]": "Luminosità e colore",
        "Name[ka]": "სიკაშკაშე და ფერი",
        "Name[nl]": "Helderheid en kleur",
        "Name[pl]": "Jasność i barwa",
        "Name[ru]": "Яркость и цвет",
        "Name[sk]": "Jas a farba",
        "Name[sl]": "Svetlost in barva",
        "Name[ta]": "நிறமும் பிரகாசமும்",
        "Name[tr]": "Parlaklık ve Renk",
        "Name[uk]": "Яскравість і колір",
        "Name[x-test]": "xxBrightness and Colorxx",
        "Name[zh_CN]": "亮度和颜色",
        "Name[zh_TW]": "亮度與顏色"
    },
    "Keywords": "Power Management;Brightness;Color;Light;Screen;Display;Monitor;Keyboard;Night;Temperature",
    "X-Plasma-API-Minimum-Version": "6.0",
    "X-Plasma-DBusActivationService": "org.kde.Solid.PowerManagement",
    "X-Plasma-NotificationAreaCategory": "Hardware",
    "X-Plasma-Provides": [
        "org.kde.plasma.brightness"
    ]
}
